{
    "opendb-admin-menus": {
        "data": [
            {
                "_id": {
                    "$oid": "60e6c0402881d30001258269"
                },
                "create_date": 1602662469396,
                "enable": true,
                "icon": "uni-icons-gear",
                "menu_id": "system_management",
                "name": "System Management",
                "parent_id": "",
                "permission": [],
                "sort": 1000,
                "url": ""
            },
            {
                "_id": {
                    "$oid": "60e6c0402881d3000125826a"
                },
                "create_date": 1602662469398,
                "enable": true,
                "icon": "uni-icons-person",
                "menu_id": "system_user",
                "name": "User Management",
                "parent_id": "system_management",
                "permission": [],
                "sort": 1010,
                "url": "/pages/system/user/list"
            },
            {
                "_id": {
                    "$oid": "60e6c0402881d3000125826b"
                },
                "create_date": 1602662469397,
                "enable": true,
                "icon": "uni-icons-personadd",
                "menu_id": "system_role",
                "name": "Role Management",
                "parent_id": "system_management",
                "permission": [],
                "sort": 1020,
                "url": "/pages/system/role/list"
            },
            {
                "_id": {
                    "$oid": "60e6c0402881d3000125826c"
                },
                "create_date": 1602662469396,
                "enable": true,
                "icon": "uni-icons-locked",
                "menu_id": "system_permission",
                "name": "Authority Management",
                "parent_id": "system_management",
                "permission": [],
                "sort": 1030,
                "url": "/pages/system/permission/list"
            },
            {
                "_id": {
                    "$oid": "60e6c0402881d3000125826d"
                },
                "create_date": 1602662469396,
                "enable": true,
                "icon": "uni-icons-settings",
                "menu_id": "system_menu",
                "name": "Menu Mangement",
                "parent_id": "system_management",
                "permission": [],
                "sort": 1040,
                "url": "/pages/system/menu/list"
            },
            {
                "_id": {
                    "$oid": "60e6c3e22495790001b3d1ab"
                },
                "menu_id": "vote-teacher",
                "name": "Quiz List",
                "icon": "uni-icons-email",
                "url": "pages/opendb-vote-questionnaire/list",
                "sort": 10,
                "parent_id": "",
                "permission": ["modify"],
                "enable": true
            },
            {
                "_id": {
                    "$oid": "6244ff98a6370a00014ad8f0"
                },
                "menu_id": "vote-student",
                "name": "My Quiz",
                "icon": "uni-icons-email",
                "url": "pages/opendb-vote-questionnaire/list_student",
                "sort": 11,
                "parent_id": "",
                "permission": ["checkMyList"],
                "enable": true
            }
        ]
    },
    "opendb-app-versions": [],
    "opendb-banner": {
        "data": [
            
        ]
    },
    "opendb-feedback": {
        "data": [
            
        ]
    },
    "opendb-news-articles": {
        "data": [
            
        ]
    },
    "opendb-verify-codes": {
        "data": [
           
        ]
    },
    "grp-vote-log": {
        "data": [
            
        ],
        "schema": {
            "bsonType": "object",
            "required": [],
            "permission": {
                "read": false,
                "create": false,
                "update": false,
                "delete": false
            },
            "properties": {
                "_id": {
                    "description": "ID, automatically generated"
                }
            }
        }
    },
    "grp-vote-option": {
        "data": [
            
        ],
        "schema": {
            "bsonType": "object",
            "required": [
                "title",
                "question_id",
                "is_correct"
            ],
            "permission": {
                "read": false,
                "create": false,
                "update": false,
                "delete": false
            },
            "properties": {
                "_id": {
                    "description": "ID, automatically generated"
                },
                "question_id": {
                    "description": "ID of question subordinated to",
                    "foreignKey": "grp-vote-question._id"
                },
                "title": {
                    "bsonType": "string",
                    "title": "Option Content",
                    "trim": "both"
                },
                "is_correct": {
                    "bsonType": "bool"
                },
                "create_uid": {
                    "bsonType": "string",
                    "foreignKey": "uni-id-users._id",
                    "description": "creator uid",
                    "forceDefaultValue": {
                        "$env": "uid"
                    }
                },
                "create_time": {
                    "bsonType": "timestamp",
                    "description": "Created Time",
                    "forceDefaultValue": {
                        "$env": "now"
                    }
                }
            }
        }
    },
    "grp-vote-question": {
        "data": [
           
        ],
        "schema": {
            "bsonType": "object",
            "required": [],
            "permission": {
                "read": false,
                "create": false,
                "update": false,
                "delete": false
            },
            "properties": {
                "_id": {
                    "description": "ID, automatically generated"
                }
            }
        }
    },
    "grp-vote-questionnaire": {
        "data": [
        ],
        "schema": {
            "bsonType": "object",
            "required": [],
            "permission": {
                "read": false,
                "create": false,
                "update": false,
                "delete": false
            },
            "properties": {
                "_id": {
                    "description": "ID, automatically generated"
                }
            }
        }
    },
    "uni-id-log": {
        "data": [
           
        ]
    },
	"grp-student-quiz-histoty": {
	    "data": [
	       
	    ]
	},
    "uni-id-permissions": {
        "data": [
			{
			    "permission_id": "modify",
			    "permission_name": "modify",
			    "create_date": 1648688789604
			},
			{
			    "permission_id": "checkMyList",
			    "permission_name": "checkMyList",
			    "create_date": 1648688806424
			},
			{
			    "permission_id": "accessable",
			    "permission_name": "accessable",
			    "create_date": 1648688816486
			}
		]
    },
    "uni-id-roles": {
        "data": [
            {
                "_id": {
                    "$oid": "60e6c04370f77400017a66f1"
                },
                "role_id": "admin",
                "role_name": "Manager",
                "permission": [],
                "comment": "The permissions that a manager has.",
                "create_date": 0
            },
            {
                "_id": {
                    "$oid": "60e7e258a30ce80001be1ce9"
                },
                "comment": "",
                "create_date": 1625809494995,
                "permission": [
                    "checkMyList",
                    "accessable"
                ],
                "role_id": "student",
                "role_name": "student"
            },
			{
                "_id": {
                    "$oid": "6244ffd64862d600018b30ee"
                },
			    "role_id": "teacher",
			    "role_name": "teacher",
			    "permission": [
			        "modify",
			        "accessable"
			    ],
			    "comment": "",
			    "create_date": 1648689110364
			}
        ]
    },
    "uni-id-users": {
        "data": [
			{
			    "username": "manager",
			    "password": "55d0729853165450ca2c63dbea89691041b0f49d",
			    "nickname": "manager",
			    "role": [
			        "admin"
			    ],
			    "register_date": 1648688707052,
			    "register_ip": "125.111.160.101",
			    "token": [
			        "eyJhbGciOiJIUzI1NiIsInR5cCI6IkpXVCJ9.eyJ1aWQiOiI2MjQ0ZmU0MzQ0ZTI5YjAwMDE1OTI3MTYiLCJyb2xlIjpbImFkbWluIl0sInBlcm1pc3Npb24iOltdLCJpYXQiOjE2NDg3Nzk4ODIsImV4cCI6MTY0ODc4NzA4Mn0.WYWL2sbSz68Te7v2toYX6J2sFt6LQvyZrSh_oyVu3p4",
			        "eyJhbGciOiJIUzI1NiIsInR5cCI6IkpXVCJ9.eyJ1aWQiOiI2MjQ0ZmU0MzQ0ZTI5YjAwMDE1OTI3MTYiLCJyb2xlIjpbImFkbWluIl0sInBlcm1pc3Npb24iOltdLCJpYXQiOjE2NDg3ODIwNDksImV4cCI6MTY0ODc4OTI0OX0.e8G84sgEtBDZJUYeR95SRAgJeSOe7ptM8mU1UW-fy_M"
			    ],
			    "last_login_date": 1648782049726,
			    "last_login_ip": "210.83.69.194",
			    "login_ip_limit": []
			}
        ]
    }
}